2015-07-20T13:56:57.212156+00:00 heroku[router]: at=info method=POST path="/users/sign_out" host=frozen-dawn-1159.herokuapp.com request_id=ff13c242-55b5-40a4-abde-5276229b3e56 fwd="77.120.136.68" dyno=web.1 connect=1ms service=65ms status=302 bytes=932
2015-07-20T13:56:57.404637+00:00 heroku[router]: at=info method=GET path="/" host=frozen-dawn-1159.herokuapp.com request_id=f8071e55-6018-4d5a-b9cc-d96d59513b92 fwd="77.120.136.68" dyno=web.1 connect=0ms service=43ms status=200 bytes=2681
2015-07-20T13:57:08.493475+00:00 heroku[router]: at=info method=GET path="/users/sign_up" host=frozen-dawn-1159.herokuapp.com request_id=bec29698-5b7a-40b6-959a-bfd47b541a81 fwd="77.120.136.68" dyno=web.1 connect=2ms service=24ms status=200 bytes=3195
2015-07-20T13:57:08.671025+00:00 heroku[router]: at=info method=GET path="/favicon.ico" host=frozen-dawn-1159.herokuapp.com request_id=d6a57bda-41d9-4f18-8846-fba32920b102 fwd="77.120.136.68" dyno=web.1 connect=2ms service=4ms status=304 bytes=133
2015-07-20T13:57:44.040549+00:00 heroku[api]: Starting process with command `rails c` by dmitriy.smus@gmail.com
2015-07-20T13:57:50.571461+00:00 heroku[run.9820]: Awaiting client
2015-07-20T13:57:50.606784+00:00 heroku[run.9820]: Starting process with command `rails c`
2015-07-20T13:57:50.873830+00:00 heroku[run.9820]: State changed from starting to up
2015-07-20T13:58:36.148247+00:00 heroku[router]: at=info method=GET path="/users" host=frozen-dawn-1159.herokuapp.com request_id=7ceae19c-77ba-4dbb-98fb-f07c173227ad fwd="77.120.136.68" dyno=web.1 connect=0ms service=19ms status=200 bytes=2324
2015-07-20T13:58:36.309178+00:00 heroku[router]: at=info method=GET path="/favicon.ico" host=frozen-dawn-1159.herokuapp.com request_id=7e16ccf8-c96a-46a7-8814-16629a761c4c fwd="77.120.136.68" dyno=web.1 connect=1ms service=3ms status=304 bytes=133
2015-07-20T13:58:37.864021+00:00 heroku[router]: at=info method=GET path="/users/sign_up" host=frozen-dawn-1159.herokuapp.com request_id=c52fedeb-ff2d-4308-9080-4caa58494431 fwd="77.120.136.68" dyno=web.1 connect=0ms service=65ms status=200 bytes=3195
2015-07-20T13:58:46.561306+00:00 heroku[router]: at=info method=POST path="/users" host=frozen-dawn-1159.herokuapp.com request_id=14b76b9e-be97-4080-9b28-6bb6a103fc41 fwd="77.120.136.68" dyno=web.1 connect=2ms service=339ms status=302 bytes=1186
2015-07-20T13:58:46.724232+00:00 heroku[router]: at=info method=GET path="/" host=frozen-dawn-1159.herokuapp.com request_id=7f1c73d6-1546-4ea7-bb17-fe710e1319df fwd="77.120.136.68" dyno=web.1 connect=1ms service=13ms status=200 bytes=2673
2015-07-20T13:59:05.796413+00:00 heroku[router]: at=info method=GET path="/" host=frozen-dawn-1159.herokuapp.com request_id=d873e746-81a3-4d3d-91d1-2073c4da3762 fwd="77.120.136.68" dyno=web.1 connect=1ms service=688ms status=200 bytes=2584
2015-07-20T13:59:05.991666+00:00 heroku[router]: at=info method=GET path="/assets/application-df413bd97be112a4613caf975b9572918f02c4169780af0aedd05aa649868b50.css" host=frozen-dawn-1159.herokuapp.com request_id=d03be985-b30b-4111-b610-6ee83f725ad2 fwd="77.120.136.68" dyno=web.1 connect=1ms service=34ms status=304 bytes=133
2015-07-20T13:59:06.024315+00:00 heroku[router]: at=info method=GET path="/assets/application-cd4554f17daedb20f5e5c7a53adba6beb47400c2a938a1b77fe4341e69693099.js" host=frozen-dawn-1159.herokuapp.com request_id=8e273ec4-cfc6-4a72-b6e0-1b8f6428986b fwd="77.120.136.68" dyno=web.1 connect=0ms service=63ms status=304 bytes=133
2015-07-20T13:59:06.225806+00:00 heroku[router]: at=info method=GET path="/favicon.ico" host=frozen-dawn-1159.herokuapp.com request_id=bc5acc26-78e2-4710-919e-0e1c75ac4b41 fwd="77.120.136.68" dyno=web.1 connect=1ms service=17ms status=200 bytes=228
2015-07-20T14:09:50.868106+00:00 heroku[run.9820]: Process exited with status 0
2015-07-20T14:09:50.882990+00:00 heroku[run.9820]: State changed from up to complete
2015-07-20T14:12:26.745584+00:00 heroku[slug-compiler]: Slug compilation started
2015-07-20T14:12:26.745591+00:00 heroku[slug-compiler]: Slug compilation finished
2015-07-20T14:12:26.697723+00:00 heroku[api]: Deploy fb9dddc by dmitriy.smus@gmail.com
2015-07-20T14:12:26.697723+00:00 heroku[api]: Release v8 created by dmitriy.smus@gmail.com
2015-07-20T14:12:30.300299+00:00 heroku[web.1]: Starting process with command `bin/rails server -p 3884 -e production`
2015-07-20T14:12:30.764840+00:00 heroku[web.1]: Stopping all processes with SIGTERM
2015-07-20T14:12:31.734815+00:00 app[web.1]: [2015-07-20 14:12:31] FATAL SignalException: SIGTERM
2015-07-20T14:12:31.734820+00:00 app[web.1]: 	/app/vendor/ruby-2.0.0/lib/ruby/2.0.0/webrick/server.rb:170:in `select'
2015-07-20T14:12:31.734824+00:00 app[web.1]: 	/app/vendor/ruby-2.0.0/lib/ruby/2.0.0/webrick/server.rb:170:in `block in start'
2015-07-20T14:12:31.734825+00:00 app[web.1]: 	/app/vendor/ruby-2.0.0/lib/ruby/2.0.0/webrick/server.rb:32:in `start'
2015-07-20T14:12:31.734827+00:00 app[web.1]: 	/app/vendor/ruby-2.0.0/lib/ruby/2.0.0/webrick/server.rb:160:in `start'
2015-07-20T14:12:31.734828+00:00 app[web.1]: 	/app/vendor/bundle/ruby/2.0.0/gems/rack-1.6.4/lib/rack/handler/webrick.rb:34:in `run'
2015-07-20T14:12:31.734830+00:00 app[web.1]: 	/app/vendor/bundle/ruby/2.0.0/gems/rack-1.6.4/lib/rack/server.rb:286:in `start'
2015-07-20T14:12:31.734831+00:00 app[web.1]: 	/app/vendor/bundle/ruby/2.0.0/gems/railties-4.2.3/lib/rails/commands/server.rb:80:in `start'
2015-07-20T14:12:31.734833+00:00 app[web.1]: 	/app/vendor/bundle/ruby/2.0.0/gems/railties-4.2.3/lib/rails/commands/commands_tasks.rb:80:in `block in server'
2015-07-20T14:12:31.734834+00:00 app[web.1]: 	/app/vendor/bundle/ruby/2.0.0/gems/railties-4.2.3/lib/rails/commands/commands_tasks.rb:75:in `tap'
2015-07-20T14:12:31.734836+00:00 app[web.1]: 	/app/vendor/bundle/ruby/2.0.0/gems/railties-4.2.3/lib/rails/commands/commands_tasks.rb:75:in `server'
2015-07-20T14:12:31.734837+00:00 app[web.1]: 	/app/vendor/bundle/ruby/2.0.0/gems/railties-4.2.3/lib/rails/commands/commands_tasks.rb:39:in `run_command!'
2015-07-20T14:12:31.734840+00:00 app[web.1]: 	bin/rails:4:in `require'
2015-07-20T14:12:31.734842+00:00 app[web.1]: 	bin/rails:4:in `<main>'
2015-07-20T14:12:31.734848+00:00 app[web.1]: [2015-07-20 14:12:31] INFO  going to shutdown ...
2015-07-20T14:12:31.734872+00:00 app[web.1]: [2015-07-20 14:12:31] INFO  WEBrick::HTTPServer#start done.
2015-07-20T14:12:31.734839+00:00 app[web.1]: 	/app/vendor/bundle/ruby/2.0.0/gems/railties-4.2.3/lib/rails/commands.rb:17:in `<top (required)>'
2015-07-20T14:12:31.784893+00:00 app[web.1]: => Booting WEBrick
2015-07-20T14:12:31.784899+00:00 app[web.1]: => Rails 4.2.3 application starting in production on http://0.0.0.0:23686
2015-07-20T14:12:31.784901+00:00 app[web.1]: => Run `rails server -h` for more startup options
2015-07-20T14:12:31.784902+00:00 app[web.1]: => Ctrl-C to shutdown server
2015-07-20T14:12:31.784904+00:00 app[web.1]: Exiting
2015-07-20T14:12:32.847075+00:00 heroku[web.1]: Process exited with status 143
2015-07-20T14:12:34.923136+00:00 app[web.1]: [2015-07-20 14:12:34] INFO  WEBrick 1.3.1
2015-07-20T14:12:34.923169+00:00 app[web.1]: [2015-07-20 14:12:34] INFO  ruby 2.0.0 (2015-04-13) [x86_64-linux]
2015-07-20T14:12:34.923529+00:00 app[web.1]: [2015-07-20 14:12:34] INFO  WEBrick::HTTPServer#start: pid=3 port=3884
2015-07-20T14:12:36.116507+00:00 heroku[router]: at=info method=GET path="/" host=frozen-dawn-1159.herokuapp.com request_id=6d04050a-ea14-4f60-8fdc-b4921470b0e2 fwd="77.120.136.68" dyno=web.1 connect=3ms service=152ms status=200 bytes=2584
2015-07-20T14:12:36.332239+00:00 heroku[router]: at=info method=GET path="/assets/application-cd4554f17daedb20f5e5c7a53adba6beb47400c2a938a1b77fe4341e69693099.js" host=frozen-dawn-1159.herokuapp.com request_id=b652d1b3-0da9-479f-b98c-d4df1ba1afa0 fwd="77.120.136.68" dyno=web.1 connect=1ms service=3ms status=304 bytes=133
2015-07-20T14:12:36.327446+00:00 heroku[router]: at=info method=GET path="/assets/application-df413bd97be112a4613caf975b9572918f02c4169780af0aedd05aa649868b50.css" host=frozen-dawn-1159.herokuapp.com request_id=71dbaeb4-5829-4ac3-abac-e57dc19c9f86 fwd="77.120.136.68" dyno=web.1 connect=1ms service=4ms status=304 bytes=133
2015-07-20T14:12:36.575441+00:00 heroku[router]: at=info method=GET path="/favicon.ico" host=frozen-dawn-1159.herokuapp.com request_id=357b5148-3f21-4055-b0fa-3ca9469b1d73 fwd="77.120.136.68" dyno=web.1 connect=1ms service=4ms status=200 bytes=228
2015-07-20T14:12:39.249439+00:00 heroku[router]: at=info method=GET path="/" host=frozen-dawn-1159.herokuapp.com request_id=5c01dc8f-24b0-40af-ac54-26d3712a0b18 fwd="77.120.136.68" dyno=web.1 connect=1ms service=14ms status=200 bytes=2584
2015-07-20T14:12:39.415125+00:00 heroku[router]: at=info method=GET path="/assets/application-df413bd97be112a4613caf975b9572918f02c4169780af0aedd05aa649868b50.css" host=frozen-dawn-1159.herokuapp.com request_id=9e38ccbd-beb6-49ae-869d-0aaaf9d22483 fwd="77.120.136.68" dyno=web.1 connect=1ms service=7ms status=304 bytes=133
2015-07-20T14:12:39.605696+00:00 heroku[router]: at=info method=GET path="/favicon.ico" host=frozen-dawn-1159.herokuapp.com request_id=418c4c8d-ea26-4bfe-b682-ae668a4ee9b5 fwd="77.120.136.68" dyno=web.1 connect=1ms service=4ms status=200 bytes=228
2015-07-20T14:12:39.413402+00:00 heroku[router]: at=info method=GET path="/assets/application-cd4554f17daedb20f5e5c7a53adba6beb47400c2a938a1b77fe4341e69693099.js" host=frozen-dawn-1159.herokuapp.com request_id=8f096c63-682d-4897-9654-a99702f75f4a fwd="77.120.136.68" dyno=web.1 connect=1ms service=4ms status=304 bytes=133
2015-07-20T14:12:35.301475+00:00 heroku[web.1]: State changed from starting to up
2015-07-20T14:12:26.828539+00:00 heroku[web.1]: State changed from up to starting
2015-07-20T14:13:15.648473+00:00 heroku[api]: Starting process with command `rails c` by dmitriy.smus@gmail.com
2015-07-20T14:13:19.412313+00:00 heroku[run.3786]: Awaiting client
2015-07-20T14:13:19.440769+00:00 heroku[run.3786]: Starting process with command `rails c`
2015-07-20T14:13:19.768644+00:00 heroku[run.3786]: State changed from starting to up
2015-07-20T14:13:53.709564+00:00 heroku[router]: at=info method=GET path="/" host=frozen-dawn-1159.herokuapp.com request_id=ee7fa980-1712-4734-bf97-072f4c48b2db fwd="77.120.136.68" dyno=web.1 connect=12ms service=21ms status=200 bytes=2356
2015-07-20T14:13:53.872803+00:00 heroku[router]: at=info method=GET path="/assets/application-df413bd97be112a4613caf975b9572918f02c4169780af0aedd05aa649868b50.css" host=frozen-dawn-1159.herokuapp.com request_id=c0211369-ef78-4cf5-a17c-b0b80701c743 fwd="77.120.136.68" dyno=web.1 connect=3ms service=4ms status=304 bytes=133
2015-07-20T14:13:54.024090+00:00 heroku[router]: at=info method=GET path="/assets/application-cd4554f17daedb20f5e5c7a53adba6beb47400c2a938a1b77fe4341e69693099.js" host=frozen-dawn-1159.herokuapp.com request_id=ec7075db-6ec3-4397-854c-0b50405c6dc9 fwd="77.120.136.68" dyno=web.1 connect=2ms service=4ms status=304 bytes=133
2015-07-20T14:13:54.223400+00:00 heroku[router]: at=info method=GET path="/favicon.ico" host=frozen-dawn-1159.herokuapp.com request_id=32a78e9e-efbd-40e6-a6bf-8275ca2880dd fwd="77.120.136.68" dyno=web.1 connect=1ms service=4ms status=200 bytes=228
2015-07-20T14:13:55.580927+00:00 heroku[router]: at=info method=GET path="/users/sign_up" host=frozen-dawn-1159.herokuapp.com request_id=79434ba1-47c3-4119-bc97-07fef21f607c fwd="77.120.136.68" dyno=web.1 connect=1ms service=92ms status=200 bytes=3227
2015-07-20T14:14:02.204417+00:00 heroku[router]: at=info method=POST path="/users" host=frozen-dawn-1159.herokuapp.com request_id=4a0e5364-6a7b-49a5-a2e1-6900dc4df629 fwd="77.120.136.68" dyno=web.1 connect=2ms service=516ms status=500 bytes=1754
2015-07-20T14:14:07.033389+00:00 heroku[router]: at=info method=POST path="/users" host=frozen-dawn-1159.herokuapp.com request_id=b6809284-bf5f-4001-a44d-15e370a3ac63 fwd="77.120.136.68" dyno=web.1 connect=1ms service=153ms status=500 bytes=1754
2015-07-20T14:14:07.578757+00:00 heroku[router]: at=info method=GET path="/favicon.ico" host=frozen-dawn-1159.herokuapp.com request_id=7185c8b8-537e-4283-bb95-16ff2ed3bfbb fwd="77.120.136.68" dyno=web.1 connect=1ms service=13ms status=200 bytes=228
2015-07-20T14:14:09.705691+00:00 heroku[router]: at=info method=POST path="/users" host=frozen-dawn-1159.herokuapp.com request_id=f903b9d1-b257-4aaf-b238-6fd6eb2d1c47 fwd="77.120.136.68" dyno=web.1 connect=1ms service=129ms status=500 bytes=1754
2015-07-20T14:14:09.887948+00:00 heroku[router]: at=info method=GET path="/favicon.ico" host=frozen-dawn-1159.herokuapp.com request_id=1c7085ae-bf95-425d-84de-a9d75d3b6d69 fwd="77.120.136.68" dyno=web.1 connect=1ms service=4ms status=200 bytes=228
2015-07-20T14:14:11.477795+00:00 heroku[router]: at=info method=GET path="/users/sign_up" host=frozen-dawn-1159.herokuapp.com request_id=fa7a6267-dacb-4de7-910a-d9ff9724276b fwd="77.120.136.68" dyno=web.1 connect=1ms service=15ms status=200 bytes=3227
2015-07-20T14:14:11.635267+00:00 heroku[router]: at=info method=GET path="/assets/application-df413bd97be112a4613caf975b9572918f02c4169780af0aedd05aa649868b50.css" host=frozen-dawn-1159.herokuapp.com request_id=0c4cb141-01cc-4ada-8c13-0a28e2b195fc fwd="77.120.136.68" dyno=web.1 connect=1ms service=4ms status=304 bytes=133
2015-07-20T14:14:11.638076+00:00 heroku[router]: at=info method=GET path="/assets/application-cd4554f17daedb20f5e5c7a53adba6beb47400c2a938a1b77fe4341e69693099.js" host=frozen-dawn-1159.herokuapp.com request_id=c6d86d29-8225-4e79-9b01-696f086b3380 fwd="77.120.136.68" dyno=web.1 connect=1ms service=6ms status=304 bytes=133
2015-07-20T14:14:11.825131+00:00 heroku[router]: at=info method=GET path="/favicon.ico" host=frozen-dawn-1159.herokuapp.com request_id=c8a9592d-a874-4db9-924a-4341dee3a358 fwd="77.120.136.68" dyno=web.1 connect=1ms service=4ms status=200 bytes=228
2015-07-20T14:14:12.465418+00:00 heroku[router]: at=info method=GET path="/" host=frozen-dawn-1159.herokuapp.com request_id=12a13bd8-2a77-4b35-9894-862dd9ff9210 fwd="77.120.136.68" dyno=web.1 connect=9ms service=15ms status=200 bytes=2493
2015-07-20T14:14:38.614113+00:00 heroku[router]: at=info method=GET path="/" host=frozen-dawn-1159.herokuapp.com request_id=82b838d7-7896-40ef-bb14-65bca3543dfc fwd="77.120.136.68" dyno=web.1 connect=3ms service=12ms status=200 bytes=2356
2015-07-20T14:14:38.790514+00:00 heroku[router]: at=info method=GET path="/assets/application-cd4554f17daedb20f5e5c7a53adba6beb47400c2a938a1b77fe4341e69693099.js" host=frozen-dawn-1159.herokuapp.com request_id=65d443ed-8961-46b6-9374-d9337d7bfb23 fwd="77.120.136.68" dyno=web.1 connect=5ms service=7ms status=304 bytes=133
2015-07-20T14:14:38.793505+00:00 heroku[router]: at=info method=GET path="/assets/application-df413bd97be112a4613caf975b9572918f02c4169780af0aedd05aa649868b50.css" host=frozen-dawn-1159.herokuapp.com request_id=5e84e0bd-bac5-4971-bf86-f1dfefeeb72d fwd="77.120.136.68" dyno=web.1 connect=2ms service=7ms status=304 bytes=133
2015-07-20T14:14:38.984341+00:00 heroku[router]: at=info method=GET path="/favicon.ico" host=frozen-dawn-1159.herokuapp.com request_id=55487383-6e69-44e7-8a6b-eda65b7e6868 fwd="77.120.136.68" dyno=web.1 connect=6ms service=5ms status=200 bytes=228
2015-07-20T14:14:40.067237+00:00 heroku[router]: at=info method=GET path="/users/sign_up" host=frozen-dawn-1159.herokuapp.com request_id=7dff31a3-12c1-47e1-9cad-c232ed134d65 fwd="77.120.136.68" dyno=web.1 connect=1ms service=17ms status=200 bytes=3227
2015-07-20T14:14:46.027455+00:00 heroku[router]: at=info method=POST path="/users" host=frozen-dawn-1159.herokuapp.com request_id=3c59fc5a-e27e-4758-9c89-f4339a84555f fwd="77.120.136.68" dyno=web.1 connect=1ms service=131ms status=500 bytes=1754
2015-07-20T14:17:15.743616+00:00 heroku[router]: at=info method=GET path="/users/sign_up" host=frozen-dawn-1159.herokuapp.com request_id=87af7c42-6f8f-4a0b-953a-c3d1cc905d68 fwd="77.120.136.68" dyno=web.1 connect=2ms service=70ms status=200 bytes=3227
2015-07-20T14:17:15.805785+00:00 heroku[router]: at=info method=GET path="/" host=frozen-dawn-1159.herokuapp.com request_id=1317ebf9-eb46-4e6c-877d-cf2b82e3db7e fwd="77.120.136.68" dyno=web.1 connect=1ms service=11ms status=200 bytes=2493
2015-07-20T14:17:15.796306+00:00 heroku[router]: at=info method=GET path="/favicon.ico" host=frozen-dawn-1159.herokuapp.com request_id=51462b10-357d-45d9-bf89-90f3649baf6a fwd="77.120.136.68" dyno=web.1 connect=1ms service=7ms status=304 bytes=133
2015-07-20T14:17:15.907489+00:00 heroku[router]: at=info method=GET path="/assets/application-df413bd97be112a4613caf975b9572918f02c4169780af0aedd05aa649868b50.css" host=frozen-dawn-1159.herokuapp.com request_id=73931d73-777b-4771-9dc3-90d53f1c0f05 fwd="77.120.136.68" dyno=web.1 connect=1ms service=3ms status=304 bytes=133
2015-07-20T14:17:16.056416+00:00 heroku[router]: at=info method=GET path="/assets/application-cd4554f17daedb20f5e5c7a53adba6beb47400c2a938a1b77fe4341e69693099.js" host=frozen-dawn-1159.herokuapp.com request_id=447631f8-80d4-49e4-9ebd-61cc84af6db4 fwd="77.120.136.68" dyno=web.1 connect=0ms service=13ms status=304 bytes=133
2015-07-20T14:17:16.233303+00:00 heroku[router]: at=info method=GET path="/favicon.ico" host=frozen-dawn-1159.herokuapp.com request_id=2a22eab3-7157-4706-a608-5b3cbf12c266 fwd="77.120.136.68" dyno=web.1 connect=1ms service=4ms status=200 bytes=228
2015-07-20T14:17:19.599975+00:00 heroku[router]: at=info method=GET path="/" host=frozen-dawn-1159.herokuapp.com request_id=5bb4ccbb-7bb6-4bd0-914b-4d4f893ee67c fwd="77.120.136.68" dyno=web.1 connect=1ms service=32ms status=200 bytes=2493
2015-07-20T14:17:30.419927+00:00 heroku[router]: at=info method=GET path="/" host=frozen-dawn-1159.herokuapp.com request_id=a9f9db8f-5589-42c1-a4cb-370509da53a3 fwd="77.120.136.68" dyno=web.1 connect=0ms service=11ms status=200 bytes=2356
2015-07-20T14:17:31.155165+00:00 heroku[router]: at=info method=GET path="/assets/application-df413bd97be112a4613caf975b9572918f02c4169780af0aedd05aa649868b50.css" host=frozen-dawn-1159.herokuapp.com request_id=f141abdb-5fa3-4eca-9651-d5b94370e5ee fwd="77.120.136.68" dyno=web.1 connect=1ms service=5ms status=304 bytes=133
2015-07-20T14:17:31.159418+00:00 heroku[router]: at=info method=GET path="/assets/application-cd4554f17daedb20f5e5c7a53adba6beb47400c2a938a1b77fe4341e69693099.js" host=frozen-dawn-1159.herokuapp.com request_id=cd50bb52-d3c1-4e6d-bc06-c9814d9f5f5f fwd="77.120.136.68" dyno=web.1 connect=2ms service=11ms status=304 bytes=133
2015-07-20T14:17:31.355211+00:00 heroku[router]: at=info method=GET path="/favicon.ico" host=frozen-dawn-1159.herokuapp.com request_id=622f2608-aa40-47e7-9cdf-896e687bf9e0 fwd="77.120.136.68" dyno=web.1 connect=1ms service=5ms status=200 bytes=228
2015-07-20T14:17:33.110730+00:00 heroku[router]: at=info method=GET path="/users/sign_up" host=frozen-dawn-1159.herokuapp.com request_id=dd8bee6a-fc3c-4a51-ab60-8de263729153 fwd="77.120.136.68" dyno=web.1 connect=1ms service=32ms status=200 bytes=3227
2015-07-20T14:17:40.846575+00:00 heroku[router]: at=info method=POST path="/users" host=frozen-dawn-1159.herokuapp.com request_id=e1302583-cf67-47f7-8215-8c88878ac846 fwd="77.120.136.68" dyno=web.1 connect=1ms service=553ms status=500 bytes=1754
2015-07-20T14:22:16.221246+00:00 heroku[router]: at=info method=GET path="/favicon.ico" host=frozen-dawn-1159.herokuapp.com request_id=e50b7c64-9ab7-40b1-ab66-846e7c76618e fwd="77.120.136.68" dyno=web.1 connect=1ms service=4ms status=304 bytes=133
2015-07-20T14:22:33.605376+00:00 heroku[router]: at=info method=POST path="/users" host=frozen-dawn-1159.herokuapp.com request_id=97604d64-bac5-4a83-b77c-7e52da5730c5 fwd="77.120.136.68" dyno=web.1 connect=0ms service=126ms status=500 bytes=1754
